																													
11.50	11.40	11.50	11.60	11.50	11.50	11.70	12.00	12.20	12.40	12.80	13.90	15.30	16.70	17.20	13.30	11.00	11.00	11.30	11.20	10.90	10.90	11.00	10.90						
10.80	10.60	10.30	10.10	9.90	9.80	10.20	12.60	15.00	16.90	18.20	20.50	21.30	20.80	17.00	18.40	19.50	19.40	19.40	17.20	15.10	14.00	13.40	13.00						
12.40	11.70	10.80	10.30	10.30	10.70	11.60	12.60	13.90	14.60	17.00	21.10	22.60	22.20	21.20	20.40	19.40	17.40	16.60	15.70	14.90	15.60	15.40	15.20						
14.80	14.40	14.60	14.60	14.50	14.70	15.00	15.70	17.00	18.90	19.70	20.00	21.30	24.80	25.80	24.20	20.60	17.60	15.80	15.30	15.00	14.40	14.00	13.70						
14.20	13.80	13.70	13.40	13.20	13.10	13.50	15.40	16.30	18.60	20.60	21.80	22.20	21.30	20.40	19.40	18.10	17.60	17.00	16.60	16.30	16.30	15.80	16.60						
16.90	15.70	15.30	13.80	13.30	13.50	13.20	13.00	12.90	12.80	13.30	13.80	13.50	13.30	13.70	14.50	14.60	14.90	15.10	14.70	14.30	14.00	14.10	14.20						
14.20	13.90	13.50	13.00	13.00	13.20	13.50	14.20	15.40	16.60	17.80	17.80	17.80	18.50	18.50	16.40	17.00	17.00	16.60	16.20	15.40	14.90	14.60	14.20						
13.80	14.20	15.00	14.90	15.00	14.60	14.80	15.70	16.40	17.80	16.70	17.30	17.60	18.20	19.40	18.40	17.80	16.70	16.20	15.80	15.20	14.40	14.40	14.30						
14.20	13.70	13.50	13.50	14.00	13.80	14.10	14.90	15.30	16.60	18.10	18.50	18.40	18.10	18.30	20.40	21.60	21.90	20.80	18.20	16.70	16.40	15.90	15.10						
15.20	15.20	15.30	15.40	15.40	14.80	14.40	14.50	14.80	15.20	16.60	18.60	20.70	21.60	21.90	23.10	22.60	21.40	20.00	18.90	17.90	17.40	17.10	16.70						
16.70	16.60	16.60	15.60	14.80	14.60	14.60	14.70	15.10	16.00	16.60	16.60	16.20	15.90	15.40	15.20	15.30	15.10	15.00	14.60	14.20	13.90	13.80	13.50						
13.40	13.40	13.30	13.20	13.00	13.00	13.00	13.20	13.40	13.70	14.10	14.20	14.20	14.40	14.50	14.60	15.40	15.40	14.80	14.30	14.20	14.20	14.20	13.40						
13.10	12.60	12.50	12.20	12.00	12.00	12.20	12.30	12.60	12.80	12.70	13.50	13.90	16.10	17.20	17.70	18.20	17.40	16.20	16.10	15.40	15.10	14.60	14.40						
14.30	14.20	14.10	14.10	13.90	13.80	14.30	16.00	16.90	18.20	19.80	19.70	19.50	20.00	19.70	19.10	19.90	20.90	20.00	18.60	16.90	15.80	14.80	13.90						
13.40	12.70	12.40	12.20	12.00	11.80	12.40	15.60	18.90	20.80	23.00	23.40	23.60	22.90	18.60	17.00	17.40	19.80	18.80	17.60	17.00	17.10	15.40	13.90						
13.90	14.40	14.10	13.80	13.80	13.80	14.10	15.10	17.20	18.60	19.70	19.70	20.20	21.80	24.50	24.70	24.10	23.40	22.90	20.80	19.40	18.40	17.80	17.00
16.30	15.80	15.40	15.20	14.80	15.20	15.90	17.30	19.40	21.60	21.40	21.40	21.00	21.20	22.00	23.20	23.40	23.40	22.80	20.50	19.20	18.40	17.70	17.00
16.30	16.20	16.50	16.60	16.80	17.00	17.40	17.70	19.00	20.70	21.30	21.40	22.30	23.40	24.30	23.10	23.80	23.80	22.80	21.50	20.30	19.80	18.90	17.90
17.40	17.00	17.00	17.00	16.90	16.90	17.30	18.20	20.50	19.70	21.20	23.70	21.60	21.40	22.40	22.80	22.60	21.50	19.40	17.70	16.60	16.20	15.80	15.60
15.40	15.40	15.80	16.00	16.10	16.10	16.60	18.10	18.50	19.20	20.30	21.40	23.50	22.30	20.40	17.90	17.70	18.60	18.10	17.70	17.40	17.00	16.70	16.20
16.00	15.80	15.40	15.50	15.50	15.80	16.80	18.30	18.60	18.20	16.70	10.60	13.10	14.20	15.80	17.90	18.40	17.70	16.70	15.20	14.60	14.00	13.80	13.70
13.20	12.40	13.00	12.50	12.20	11.80	13.00	15.10	16.10	17.00	18.30	20.20	22.80	23.20	23.50	23.70	24.50	24.00	22.30	20.30	18.10	17.00	15.90	15.10
14.20	13.80	13.80	14.00	13.60	14.50	15.90	17.50	19.00	21.30	21.90	24.60	26.10	26.20	26.60	26.80	26.90	26.20	25.60	22.40	20.40	18.80	17.80	16.90
16.00	15.40	15.70	15.80	15.80	15.80	17.20	19.10	21.60	22.90	24.30	26.30	27.40	28.50	29.20	28.50	27.80	27.70	26.80	24.00	22.00	20.40	19.30	18.40
18.50	18.30	18.10	17.40	17.40	17.80	18.90	20.50	23.30	23.30	23.90	26.80	29.00	30.00	30.60	30.30	30.50	30.00	28.60	26.40	24.20	22.60	21.60	20.70
19.90	19.70	19.60	19.50	19.40	19.30	20.20	22.20	23.10	24.30	27.40	29.30	30.50	31.00	31.00	30.90	30.40	28.90	27.00	25.40	24.20	23.30	22.20	21.30
20.60	20.10	19.90	19.80	19.80	19.80	19.80	21.40	23.00	25.10	25.50	23.50	22.30	22.80	23.30	22.60	22.00	21.90	21.80	21.60	21.10	20.90	20.70	20.00
20.10	19.50	19.00	19.30	19.10	19.00	19.30	20.30	20.80	21.50	22.00	22.20	22.30	23.30	20.10	20.40	22.20	21.80	20.70	20.10	19.40	19.00	18.10	17.80
17.10	16.60	16.30	15.90	15.60	15.60	17.00	19.00	20.10	21.10	22.60	25.00	26.20	26.20	26.30	27.20	27.30	26.40	25.40	23.20	21.10	19.90	19.00	18.30
17.90	17.90	18.30	18.60	18.50	18.50	19.00	20.70	22.20	24.10	24.50	25.40	25.70	26.10	26.60	27.00	26.20	26.00	25.10	23.90	22.20	20.60	19.70	18.60
17.80	17.00	17.30	18.10	17.90	17.70	19.10	20.70	22.20	23.30	24.40	27.00	28.10	28.30	28.90	29.40	30.20	29.70	28.50	25.80	23.40	22.20	22.10	21.50


																							
																							
																							
