																													
-0.20	-0.60	-0.60	-0.60	-0.50	-0.60	-0.20	-0.60	0.30	3.40	5.50	7.00	8.10	9.00	9.10	8.60	7.70	6.90	5.70	5.40	4.30	3.40	2.20	1.70						
1.30	2.00	3.20	4.00	3.80	3.00	2.20	1.10	1.30	3.60	6.10	8.00	10.20	11.80	13.30	12.00	9.30	7.60	7.00	6.80	6.70	6.00	4.30	3.10						
2.60	2.00	1.80	1.50	1.40	1.40	1.20	0.80	2.10	5.40	7.90	10.00	11.00	10.90	11.70	11.00	9.40	8.50	7.00	6.20	5.70	5.40	4.40	5.00						
5.40	5.40	5.70	5.80	5.80	6.20	5.90	6.20	6.20	7.00	8.60	10.20	11.00	12.30	12.20	10.70	9.50	9.80	9.00	7.20	6.40	5.40	4.40	4.00						
5.40	6.10	6.50	6.60	6.00	5.30	5.60	5.50	5.60	6.70	8.10	9.40	10.60	12.00	11.80	11.80	11.40	10.70	9.70	7.40	6.20	7.00	7.00	7.50						
7.40	7.00	6.50	6.20	5.80	5.80	5.60	5.50	5.90	6.90	8.50	10.00	11.30	12.00	10.60	11.00	9.60	8.80	7.90	7.60	6.20	5.10	4.50	4.40						
4.60	4.90	5.00	5.40	5.20	5.00	4.40	3.50	3.80	5.00	8.10	11.00	11.80	15.20	15.20	14.50	13.60	12.00	10.20	9.00	7.70	6.90	6.40	5.50						
4.90	4.40	4.00	3.60	3.60	3.20	2.60	2.60	3.30	5.40	7.00	8.60	10.50	12.50	12.60	12.20	11.40	10.00	8.60	7.10	6.00	5.20	4.60	4.20						
3.60	3.30	3.00	2.50	2.00	2.00	1.90	1.60	2.40	3.80	5.40	7.20	9.70	11.10	11.40	11.00	10.10	8.80	7.10	6.00	5.30	4.40	3.80	3.20						
2.90	2.60	2.00	2.00	2.60	3.20	3.80	4.20	4.50	5.20	6.60	8.20	8.50	9.50	11.00	10.60	9.70	8.00	6.50	5.10	4.50	3.90	3.90	3.20						
1.00	0.50	0.10	-0.30	-0.50	-0.80	-1.00	-0.60	0.50	2.60	5.90	8.40	10.50	11.90	11.50	11.20	10.20	9.40	7.80	6.00	4.70	4.20	3.50	3.50						
4.20	4.20	4.20	4.10	4.20	2.70	1.70	1.90	2.90	5.00	7.30	9.10	11.80	12.30	12.20	11.70	10.30	8.80	7.40	6.00	4.70	3.80	3.00	3.30						
4.30	4.30	3.70	4.20	4.20	3.80	3.90	3.50	4.50	5.80	7.70	9.40	11.10	10.70	11.40	11.80	9.90	8.70	7.60	6.20	5.80	5.10	5.30	5.40						
5.60	4.90	4.20	3.30	4.10	4.20	4.60	4.50	5.20	6.90	9.60	10.80	12.20	14.20	15.10	14.50	13.00	11.20	9.30	7.00	6.20	6.60	6.60	6.60						
5.60	4.00	3.30	2.50	2.30	2.70	2.20	3.00	3.80	5.40	5.60	5.80	5.90	5.90	5.90	5.80	5.80	5.90	5.80	5.80	5.80	5.70	5.50	5.40						
5.10	5.00	4.80	4.60	4.60	4.30	4.30	4.20	4.40	5.20	5.80	6.30	6.60	5.50	5.10	5.10	5.00	4.70	4.50	4.50	4.40	4.40	4.30	4.20
4.20	4.10	3.90	3.80	3.60	3.40	3.20	3.20	3.50	4.00	4.60	5.20	5.80	7.50	8.30	8.60	8.20	7.20	5.90	4.60	3.70	3.00	2.70	1.80
1.40	0.90	0.60	0.40	0.00	-0.30	-0.20	-0.20	1.10	3.40	6.60	9.00	11.00	13.40	13.80	13.40	11.90	10.20	8.60	6.90	5.90	6.40	5.10	3.80
3.10	2.70	2.00	1.60	1.30	0.90	0.80	0.80	1.30	3.30	5.40	7.00	7.80	10.00	11.90	11.80	11.00	10.10	12.80	11.80	10.60	10.20	10.10	9.10
8.50	8.50	8.10	8.20	8.50	8.60	8.70	9.00	9.90	10.90	12.00	13.00	13.70	13.80	13.90	13.50	12.20	11.10	10.20	9.50	8.00	7.00	6.00	5.60
5.80	6.00	5.80	5.70	5.40	5.70	5.40	5.40	8.40	11.40	12.10	11.20	9.40	9.00	9.40	9.00	8.20	7.00	5.90	5.50	5.10	4.80	5.40	4.60
5.00	4.60	3.60	3.40	4.50	4.90	4.90	4.60	5.00	5.80	6.90	7.30	6.80	7.00	7.00	5.70	5.20	4.40	3.80	3.60	3.40	3.10	2.80	2.60
2.20	2.10	1.90	1.90	1.90	1.80	1.40	1.60	2.60	3.80	4.40	5.00	5.40	5.50	5.30	4.80	4.00	3.10	2.30	1.80	1.50	1.50	1.40	1.10
0.90	0.70	0.50	0.20	0.10	-0.30	-0.30	-0.40	0.30	2.00	3.40	4.90	5.90	6.60	6.00	5.70	5.30	4.10	2.50	1.30	0.80	0.20	-0.40	-1.00
-1.40	-1.60	-1.90	-2.20	-2.80	-3.00	-2.70	-2.50	0.30	3.30	6.20	7.60	8.30	9.10	9.20	9.00	8.50	7.00	4.80	3.20	2.10	1.40	1.00	0.20
-0.40	-0.50	-1.30	-1.00	-0.30	-0.30	0.60	1.00	2.30	4.10	6.40	7.80	8.30	8.70	9.00	8.60	8.20	7.00	5.90	6.00	6.20	4.60	3.80	3.80
3.90	4.20	3.90	3.90	3.90	3.80	3.60	3.80	4.10	5.00	5.40	5.90	6.50	7.40	7.80	7.90	7.70	7.00	6.20	5.60	5.40	5.20	5.50	5.20
4.90	4.20	3.80	3.20	2.70	2.70	2.70	3.20	3.70	4.00	4.10	4.40	4.30	4.60	4.40	3.30	2.80	2.60	2.70	3.40	3.60	3.40	2.80	99





																							
																							
																							
