																													
4.90	4.50	3.90	3.90	3.70	3.10	3.10	5.80	9.60	12.80	15.20	16.80	19.10	20.60	21.60	21.90	22.10	21.10	18.40	16.10	14.70	14.20	13.70	17.60						
19.30	19.70	19.40	18.40	18.60	19.00	19.20	19.60	19.20	19.60	20.80	20.40	22.30	23.40	23.30	22.00	22.50	22.70	21.30	19.90	17.60	15.80	14.40	14.20						
14.30	14.10	13.90	13.10	13.00	12.40	12.20	13.50	14.80	15.40	17.50	19.20	20.10	22.40	24.40	24.10	24.60	23.60	20.50	18.00	16.00	14.10	12.80	11.90						
11.40	10.80	10.50	9.70	9.10	8.80	8.80	9.70	10.60	12.20	14.60	17.00	19.80	20.50	20.90	21.10	21.30	21.00	19.40	17.10	15.10	14.20	13.20	11.80						
10.90	10.40	10.10	9.70	8.80	8.30	8.10	9.80	13.10	14.90	17.90	99	20.30	21.10	21.40	21.30	21.30	20.90	19.40	17.70	17.00	16.20	14.70	13.50						
13.10	13.00	12.30	11.70	11.00	10.50	10.40	11.00	12.10	14.70	15.60	19.40	21.20	22.30	23.00	22.20	21.80	21.60	20.30	19.80	18.60	17.60	15.80	15.30						
16.10	14.90	14.50	13.10	11.70	11.00	10.40	11.80	14.70	16.20	18.50	21.20	22.70	23.70	24.20	24.30	24.50	23.80	21.60	19.20	17.80	16.50	15.30	14.50						
13.60	12.80	13.50	17.90	18.30	17.10	18.10	20.70	21.80	22.60	22.80	23.40	23.10	22.30	21.60	20.90	20.20	18.60	15.90	14.90	14.60	14.20	14.20	13.10						
12.50	12.40	12.10	10.70	9.80	9.40	9.30	12.10	13.80	15.60	16.40	16.80	16.90	17.50	17.80	18.90	19.40	18.50	16.50	14.10	12.60	11.10	10.00	9.00						
8.40	8.30	7.90	7.00	6.50	7.20	7.50	8.20	10.00	12.20	13.60	14.60	15.10	15.90	16.30	16.80	16.20	15.30	14.50	12.70	11.70	10.60	9.50	8.50						
7.80	7.30	6.80	6.40	5.90	5.40	5.50	8.20	10.60	12.20	14.30	17.00	18.20	19.60	19.70	19.80	19.80	18.60	17.70	15.50	13.80	13.20	12.60	11.60						
14.30	14.50	13.40	12.30	11.50	10.30	9.60	12.30	14.90	15.60	15.90	17.10	18.30	18.50	19.20	19.40	19.30	18.60	17.20	15.80	14.80	14.20	12.80	11.30						
10.80	10.30	9.60	8.50	8.40	8.60	9.00	11.10	14.00	16.80	17.60	18.00	18.40	19.50	19.50	19.60	19.40	18.10	17.60	15.50	14.30	14.30	14.30	13.90						
13.70	12.90	11.60	10.70	10.10	9.90	9.90	9.70	9.90	9.10	6.60	99	6.50	6.60	7.30	7.80	8.10	8.40	7.80	6.70	5.70	5.00	4.80	4.00						
3.90	3.50	2.90	2.60	2.30	1.90	2.20	5.30	8.80	11.20	12.40	99	13.60	14.00	14.50	14.30	14.90	13.80	12.50	10.80	10.00	9.20	8.70	8.60						
8.00	7.20	6.10	5.30	4.60	5.00	6.10	8.50	11.00	13.60	15.70	15.90	16.50	17.30	18.20	18.60	18.40	17.80	16.10	14.30	12.80	11.20	10.40	9.20						
8.40	8.70	8.40	9.60	12.40	12.40	10.80	12.60	14.90	15.70	16.40	18.60	21.20	21.50	19.80	20.00	20.80	20.90	19.00	16.30	14.70	13.30	12.20	11.50						
10.60	10.00	9.20	8.20	7.60	7.20	7.30	10.30	11.50	13.20	15.10	17.30	18.20	19.20	20.60	19.80	19.10	18.80	18.20	16.60	15.50	14.60	13.50	13.30						
13.30	13.30	13.30	13.10	12.70	12.30	12.50	13.40	13.70	13.80	14.90	15.50	16.30	17.40	15.80	14.60	13.50	12.80	12.60	12.30	11.90	11.60	11.40	11.60						
11.70	12.10	12.80	13.00	13.30	13.40	13.30	13.20	12.30	12.20	12.90	13.40	13.20	12.90	12.80	12.40	13.00	13.40	13.40	13.50	13.30	13.30	13.80	14.00						
13.90	13.20	12.60	12.50	12.40	12.20	12.50	13.10	13.00	12.80	13.50	14.70	15.90	15.80	15.10	17.40	17.40	17.80	17.10	16.30	15.70	14.70	14.10	13.80						
13.50	13.30	13.00	12.70	12.90	12.60	13.00	12.60	12.80	13.70	12.10	12.20	13.60	13.10	13.00	12.70	12.40	11.70	11.40	11.50	12.00	12.40	12.40	12.10						
12.00	11.80	11.40	11.10	10.60	10.50	10.60	10.80	10.70	10.60	10.70	10.70	11.00	11.50	11.40	11.60	11.80	12.10	11.60	11.20	11.70	11.70	11.30	11.40						
11.10	11.00	11.10	11.20	11.20	11.30	11.50	12.00	12.00	13.00	13.60	14.10	14.90	13.60	12.80	12.40	12.30	12.00	11.90	11.40	11.30	11.20	11.00	10.90						
10.80	10.70	10.60	10.60	10.60	10.50	10.60	11.00	11.60	12.10	12.80	13.30	13.40	14.00	13.90	13.00	12.00	11.10	10.70	10.30	9.90	9.50	9.50	9.40						
9.40	9.00	8.80	8.80	8.80	8.80	8.90	9.20	9.50	10.20	11.80	13.10	13.10	14.00	13.90	13.80	13.90	14.20	13.90	13.20	12.60	12.30	11.90	11.80						
11.60	11.00	10.50	10.00	9.80	9.20	9.50	12.20	15.50	16.30	99	18.90	19.20	19.30	19.10	19.20	18.80	18.60	15.30	14.10	12.90	13.20	13.40	12.60						
12.60	12.70	12.60	12.20	12.10	11.70	11.70	12.10	13.20	15.50	18.30	17.80	18.30	16.70	15.80	14.90	15.90	16.20	15.00	13.70	12.50	11.50	10.90	10.30						
10.20	10.90	11.20	10.90	10.70	10.60	10.90	12.40	15.40	17.80	17.90	18.80	19.40	19.80	20.30	20.60	20.60	20.40	19.50	17.90	16.90	13.90	12.20	11.80						
11.80	11.50	11.10	10.90	12.10	11.70	11.40	11.50	12.30	13.10	14.60	17.50	17.70	18.80	19.00	17.80	14.40	14.10	14.00	13.70	13.50	14.50	14.90	13.40						

																							

																							
																							
																							
