																													
3.80	4.00	3.70	3.40	3.70	3.30	2.60	2.00	2.10	3.40	5.10	6.90	7.50	5.90	5.20	5.40	5.70	5.70	5.10	5.20	5.20	5.30	5.10	5.30						
5.20	5.10	5.00	5.20	5.10	5.00	4.70	4.60	4.80	5.50	5.90	6.30	6.50	7.00	7.30	7.00	6.70	6.30	5.60	5.00	4.30	3.10	2.30	1.90						
1.60	1.30	0.90	1.00	1.00	1.00	1.90	1.30	1.30	2.30	3.60	4.80	6.50	8.60	8.70	7.10	5.80	5.70	6.10	6.40	6.40	6.40	4.90	3.70						
3.30	3.10	4.70	4.90	3.30	2.20	1.80	0.90	0.10	0.40	1.30	2.80	4.60	5.00	5.30	5.10	4.80	4.20	3.80	3.80	3.80	3.50	3.00	2.60						
2.40	2.30	2.20	2.30	2.50	2.70	2.70	2.70	2.70	2.60	2.70	2.80	2.30	2.40	2.40	2.40	2.30	2.20	2.20	2.20	2.20	2.30	2.10	1.90						
1.50	1.30	1.30	1.20	1.20	1.60	1.80	2.00	1.90	2.40	2.70	2.70	2.60	2.90	3.00	2.80	2.70	2.60	2.70	2.70	2.90	3.00	3.20	3.40						
3.40	3.30	3.40	3.30	3.30	3.10	3.30	3.40	3.50	3.60	3.60	3.70	3.70	3.90	3.90	4.10	4.00	4.10	4.30	4.40	4.50	4.70	4.80	5.00						
5.10	5.10	5.20	5.30	5.20	5.00	5.00	4.80	4.90	5.80	6.90	7.70	8.30	9.10	10.20	9.00	7.90	6.70	6.10	6.00	6.00	6.70	6.50	6.40						
6.10	6.10	6.10	5.80	5.00	4.70	4.60	4.90	5.60	6.30	6.80	7.30	7.60	7.70	7.90	7.60	6.80	6.50	5.90	5.50	5.20	5.20	5.50	6.10						
6.40	6.30	6.30	6.30	6.30	6.20	6.30	6.40	6.40	6.00	6.00	6.10	6.10	6.10	6.10	6.20	6.10	6.00	6.10	6.20	6.50	6.60	6.60	6.70						
6.90	7.00	6.90	6.90	6.90	7.00	6.70	6.70	6.70	6.80	6.90	7.10	7.30	7.40	7.40	7.40	7.30	7.30	7.20	7.30	7.30	7.50	7.80	7.50						
7.30	7.20	7.10	7.20	7.10	7.00	7.10	7.20	7.50	7.40	7.60	7.50	7.60	7.70	7.70	7.70	7.70	7.70	7.80	7.90	8.10	8.20	8.30	8.40						
8.40	8.40	8.40	8.40	8.50	8.40	8.40	8.40	8.30	8.40	8.80	9.10	9.40	9.60	10.20	10.30	10.30	9.50	9.40	9.70	9.70	9.20	9.10	9.00						
8.90	8.80	8.70	8.30	8.10	7.80	7.80	7.60	7.70	8.20	8.80	9.20	9.30	9.90	10.10	9.60	9.40	9.10	8.90	8.80	8.70	8.70	8.60	8.40						
7.90	7.60	7.40	7.30	7.20	7.20	7.10	6.90	6.80	6.50	6.00	6.00	6.00	6.00	5.40	5.60	5.80	5.90	5.90	6.00	5.90	5.90	5.20	4.20						
3.60	3.00	2.90	2.20	1.70	1.40	1.30	1.30	1.80	3.90	6.10	7.30	7.00	8.50	8.90	7.70	6.10	5.00	4.40	3.70	3.30	3.60	3.40	3.20
3.50	2.90	3.50	3.30	2.50	1.30	2.40	2.40	3.10	4.30	5.50	6.20	6.40	7.20	7.80	7.00	5.90	4.60	3.50	2.80	2.00	1.40	1.00	1.30
0.80	0.40	0.30	0.10	0.20	0.10	-0.60	-0.90	-0.20	2.40	5.30	6.10	5.90	7.90	8.00	6.70	5.00	3.80	2.40	1.70	1.40	1.50	1.00	0.60
0.10	-0.20	0.00	-0.20	-0.40	-0.40	-0.60	-0.20	0.50	2.80	4.80	5.90	6.10	7.30	8.00	8.00	7.00	5.70	4.60	3.20	1.90	1.30	1.10	1.30
1.60	1.80	2.30	2.50	2.70	2.90	3.30	3.50	3.60	3.90	4.40	5.30	5.60	5.90	5.70	5.10	4.80	4.60	4.40	4.30	4.10	3.90	3.90	3.90
3.70	3.80	3.60	3.70	3.60	3.50	3.50	3.50	3.50	3.80	4.50	5.00	5.60	5.90	6.30	6.50	6.00	5.10	4.70	4.60	4.40	4.30	4.20	4.20
4.10	4.00	3.90	4.00	3.80	3.80	3.80	3.80	3.80	3.80	3.80	4.00	4.10	4.10	4.10	3.90	3.20	2.90	2.90	2.80	2.50	2.30	2.30	2.30
2.20	2.00	1.70	1.70	1.60	1.50	1.70	1.80	1.90	2.20	2.30	2.50	2.70	2.80	2.80	2.70	2.40	2.10	2.30	2.50	2.40	2.20	2.30	2.40
2.40	2.50	2.60	2.70	2.90	2.90	2.90	3.10	3.10	3.40	3.70	3.80	4.10	4.20	4.40	4.50	4.50	4.60	4.60	4.70	4.80	4.80	4.80	4.90
5.00	5.00	5.00	5.10	5.00	5.10	5.10	5.10	5.20	5.30	5.50	5.60	5.80	5.90	5.90	5.70	5.40	5.00	4.70	4.20	4.00	4.00	4.00	4.00
4.20	4.30	4.40	4.30	4.10	4.00	4.00	4.00	4.00	4.10	4.20	4.50	4.70	4.80	4.90	5.10	5.10	5.10	5.20	5.20	5.20	5.10	5.30	5.30
5.40	5.40	5.50	5.60	5.60	5.50	5.20	5.40	5.40	5.70	6.10	6.80	7.70	8.90	9.20	8.90	8.10	8.30	7.90	7.70	7.30	7.20	7.00	7.00
6.80	6.60	6.60	6.50	6.50	6.50	6.40	6.20	6.10	6.10	6.40	6.50	6.80	7.00	7.50	7.40	7.10	7.10	7.20	7.10	6.70	6.50	6.40	6.10
5.90	5.90	5.90	6.00	6.00	5.90	5.90	5.80	5.90	6.10	6.50	6.90	7.20	7.10	7.20	7.10	6.90	6.80	6.60	6.50	6.50	6.60	6.50	6.20
6.00	5.50	5.40	5.30	5.10	4.80	4.50	4.30	4.60	6.10	7.80	8.70	8.60	9.30	8.70	8.20	7.90	7.60	7.20	6.60	6.00	5.50	5.10	4.90
4.60	3.70	3.00	2.50	2.00	1.80	1.50	1.20	1.30	1.30	1.50	2.00	2.60	3.70	4.40	4.50	4.00	3.60	3.00	2.70	2.50	2.80	2.60	2.00


																							
																							
																							
