																													
9.40	9.80	10.00	9.60	9.70	9.40	9.00	8.70	9.60	12.00	13.80	13.10	13.60	14.70	15.20	14.70	13.50	12.30	11.60	10.90	10.10	9.40	8.70	8.30						
8.00	7.80	7.40	7.20	7.10	7.10	6.70	6.60	8.10	10.40	12.90	14.10	15.20	17.60	18.10	17.10	15.90	14.30	12.60	11.60	11.00	10.40	9.80	9.60						
9.30	8.80	8.60	8.00	7.80	7.40	7.00	7.20	9.40	11.20	13.50	14.20	14.50	16.30	16.50	15.50	14.70	13.50	12.60	11.40	10.10	9.70	8.90	8.50						
8.20	8.00	7.70	8.10	8.90	9.30	9.90	10.40	10.80	11.20	12.10	13.50	15.10	15.70	15.80	15.60	15.20	14.60	14.20	13.90	13.60	13.50	13.30	13.20						
13.00	12.90	12.70	12.40	12.00	12.00	12.30	12.30	12.30	12.60	13.50	13.70	12.80	12.20	12.00	11.70	11.40	11.10	11.10	11.10	11.10	11.20	11.30	11.30						
11.40	11.20	10.90	10.60	9.80	9.00	8.60	8.90	10.00	11.40	12.50	12.50	13.00	14.30	15.00	15.00	14.00	12.60	11.10	10.40	9.90	9.30	9.80	8.80						
8.30	8.50	8.60	9.00	8.90	8.90	9.20	9.40	10.00	10.40	10.90	11.20	11.90	12.70	13.70	13.70	13.50	13.20	13.00	12.90	12.90	12.70	11.70	10.70						
10.70	10.40	9.40	9.40	9.40	9.40	9.50	9.50	11.00	12.60	14.70	15.00	15.60	18.20	17.70	16.00	14.50	13.00	11.60	10.50	10.00	9.10	8.40	7.90						
8.30	9.00	9.30	9.50	10.00	10.30	10.30	10.20	10.30	11.10	11.60	11.80	13.00	14.50	13.90	13.30	12.30	11.40	10.60	10.30	10.40	11.00	11.40	11.20						
11.10	11.00	11.00	10.90	10.80	10.70	10.60	10.30	10.50	10.70	10.90	11.00	10.70	10.40	10.20	10.00	9.90	9.60	9.50	9.40	9.30	9.30	9.20	9.10						
9.10	8.80	8.80	9.00	9.00	9.00	9.10	9.20	9.70	9.90	10.10	10.40	11.50	12.70	13.10	13.70	13.70	13.20	13.30	13.10	13.40	14.70	15.20	15.00						
14.10	13.70	14.30	13.80	14.00	13.70	13.50	13.70	13.70	13.80	14.30	14.60	15.70	15.90	16.40	16.60	16.60	16.70	17.10	16.90	16.90	17.00	17.00	17.00						
16.70	15.30	15.00	14.80	15.30	15.70	16.00	15.40	15.40	15.40	15.00	14.30	14.40	14.50	14.50	13.90	13.80	13.30	12.80	13.10	13.70	13.00	12.60	12.40						
12.40	12.30	12.30	12.20	11.60	11.50	11.50	11.30	11.30	11.30	11.40	11.80	12.00	11.50	11.20	11.10	10.70	10.50	10.30	9.80	9.20	9.80	10.10	10.00						
10.20	10.00	9.80	9.90	9.70	9.60	9.30	9.30	9.30	9.60	10.30	11.20	11.90	11.90	11.50	11.40	10.90	11.00	11.10	11.10	11.10	11.10	11.10	11.00						
10.90	10.80	10.80	11.20	11.30	11.40	11.60	11.70	11.70	11.80	12.30	12.60	12.40	11.90	11.60	11.50	11.30	11.70	11.90	12.20	12.20	12.10	12.00	11.60						
11.40	11.30	11.20	11.30	11.30	11.20	11.20	11.30	11.40	11.60	12.00	12.30	12.40	12.70	12.50	12.50	12.30	12.00	11.70	11.50	11.40	11.20	11.30	11.20						
11.10	11.00	10.90	10.80	10.90	10.80	10.50	10.60	10.00	9.80	10.30	10.80	11.10	11.30	11.30	10.40	9.70	9.50	9.00	8.80	8.70	8.70	8.40	8.20						
8.00	8.00	8.00	7.70	7.40	7.80	7.20	7.00	7.10	9.20	9.70	10.60	10.90	11.10	10.80	10.10	9.60	9.30	9.40	9.10	8.60	8.40	8.50	8.40						
8.10	7.60	6.50	6.40	6.50	6.20	6.30	6.40	6.50	6.80	6.80	6.90	7.20	7.70	8.00	8.60	8.40	7.00	6.50	6.00	5.90	5.40	5.20	5.50						
4.90	5.50	5.70	5.80	5.80	5.90	5.80	5.80	6.10	7.60	9.00	10.20	11.80	13.10	12.80	11.00	9.10	7.90	7.10	6.40	7.10	7.70	7.80	7.70						
6.80	7.00	7.30	7.20	6.10	4.90	4.60	4.40	4.30	5.10	5.60	6.10	6.60	7.90	9.00	7.50	6.10	5.70	5.80	5.20	5.10	4.20	3.90	3.60						
3.30	3.30	4.10	4.60	4.80	4.70	4.70	4.70	4.90	5.40	6.50	7.10	8.00	9.00	9.20	8.10	7.10	5.90	4.70	4.20	3.90	3.30	2.40	1.80						
1.50	1.60	1.10	1.60	1.90	2.10	6.10	7.60	7.60	8.00	8.50	8.90	9.20	10.00	9.80	8.60	8.10	7.50	7.00	6.90	6.40	5.70	5.80	5.60						
6.00	5.60	5.60	5.30	5.00	4.80	4.80	4.80	4.70	5.00	5.40	5.40	5.80	5.80	5.80	5.30	4.90	4.60	4.40	3.60	2.10	1.70	1.70	1.80						
2.10	2.10	1.80	1.80	1.10	1.10	0.60	0.30	0.40	3.10	4.10	5.10	5.80	7.30	7.50	6.80	6.30	99	6.40	10.10	10.50	8.30	7.10	6.60						
6.30	5.40	4.50	6.70	7.70	7.90	8.30	8.60	9.00	10.40	11.00	11.10	11.30	12.20	12.00	10.50	8.90	8.60	8.00	7.30	7.20	7.30	7.30	7.00						
6.50	6.00	5.90	5.70	5.70	5.50	5.60	5.70	5.70	6.00	6.80	7.40	8.70	11.20	11.60	10.50	9.90	9.20	8.70	8.40	8.10	7.90	7.70	7.60						
7.40	7.40	7.10	6.50	6.00	5.60	5.50	5.20	5.90	7.30	9.00	9.20	8.60	8.70	8.70	8.30	7.50	6.50	6.00	6.10	6.10	5.50	5.30	5.50						
6.00	5.90	5.50	4.90	3.50	2.20	2.20	1.90	1.90	2.60	2.90	2.90	3.10	3.10	3.50	3.90	3.70	3.60	3.50	3.40	3.80	4.10	4.20	4.50						



																							
																							
																							
