																													
15.90	16.00	15.80	15.30	15.60	15.70	15.80	16.00	17.00	18.50	19.70	19.30	20.20	19.70	20.00	19.90	19.50	18.80	17.70	17.30	16.70	16.60	15.80	15.30						
15.40	15.20	15.10	15.00	14.10	13.70	14.10	14.60	14.50	14.50	16.10	17.30	19.30	20.30	20.80	20.90	19.70	17.80	15.30	13.80	12.40	11.30	10.60	10.20						
10.20	10.70	10.80	10.50	9.70	9.30	9.20	9.80	12.30	15.80	17.80	18.90	19.60	20.70	20.40	20.30	19.30	17.00	15.10	13.70	12.70	12.20	11.60	11.10						
10.60	11.30	12.40	13.00	13.20	13.10	13.00	13.30	13.70	14.20	14.70	16.50	18.20	18.40	18.80	19.10	18.50	17.00	15.10	13.80	13.10	12.20	12.00	12.10						
12.60	12.70	12.60	12.50	12.30	12.30	12.30	12.60	13.50	14.00	14.80	16.20	17.60	18.80	19.00	19.30	18.40	17.00	15.50	14.70	14.10	13.10	12.50	12.40						
12.00	11.80	11.50	11.60	11.70	11.70	11.80	12.00	12.50	12.50	13.20	14.40	16.00	16.60	17.70	17.90	17.70	16.80	16.00	15.40	14.40	14.00	14.00	14.00						
13.80	13.80	13.90	14.00	13.90	14.00	13.90	13.80	14.20	14.90	16.20	17.40	18.40	18.10	18.20	17.70	17.40	16.90	16.40	15.80	15.50	15.20	14.90	14.70						
14.80	14.90	15.20	15.10	14.60	14.60	14.30	14.60	15.40	15.50	15.90	16.20	16.40	17.10	18.10	18.20	18.00	17.40	16.40	15.30	14.30	13.80	13.70	13.50						
13.40	13.40	13.50	13.90	13.90	14.10	14.10	14.50	15.80	17.20	18.50	19.90	21.00	22.80	22.00	21.70	20.30	18.50	17.40	17.40	17.40	17.40	17.20	16.40						
15.60	15.60	15.30	15.10	14.90	14.70	14.50	14.60	14.70	14.80	14.70	14.60	14.90	14.90	15.00	15.20	14.60	14.60	15.00	15.00	15.20	15.00	14.70	14.50						
14.30	14.20	14.00	13.70	13.60	13.10	13.30	13.30	13.50	13.90	14.50	15.50	17.30	17.50	17.10	17.10	16.70	15.70	14.30	13.50	12.90	13.20	13.90	14.20						
14.10	14.20	14.10	14.00	13.80	13.70	13.60	13.70	14.70	15.60	16.80	17.30	17.40	18.30	18.70	18.10	17.20	16.50	15.30	14.20	13.30	13.00	13.60	13.90						
13.70	13.00	12.60	12.30	12.80	12.70	12.50	12.70	13.20	14.50	16.00	16.30	17.60	17.60	18.10	18.00	17.50	16.70	16.20	15.60	15.00	14.60	14.60	14.60						
14.60	14.30	14.00	13.90	14.00	14.10	14.30	14.30	14.40	15.10	15.70	15.90	16.00	16.10	16.30	16.20	16.20	15.70	15.10	14.70	14.40	14.30	14.10	14.00						
13.80	13.60	13.50	13.30	13.30	13.00	12.80	12.90	13.00	13.30	13.30	13.50	14.10	14.60	14.40	14.50	14.20	13.70	14.00	13.90	14.00	14.00	13.70	14.00						
14.20	14.10	14.40	14.40	14.60	14.20	14.00	13.90	14.00	14.00	14.60	14.50	14.40	14.00	13.60	13.50	13.70	13.70	13.30	13.20	12.90	12.70	12.50	12.50
12.60	12.60	12.40	12.20	12.20	12.10	11.80	11.90	12.10	11.80	12.10	12.60	12.60	12.70	12.70	13.60	13.90	13.60	13.10	13.00	12.30	11.90	11.70	11.10
10.30	9.40	8.40	8.20	7.50	7.30	7.10	7.30	10.20	12.70	14.90	15.70	16.80	17.90	18.20	17.30	15.70	14.20	12.70	11.50	10.70	10.40	10.50	10.70
11.20	11.20	11.30	11.10	11.00	10.60	10.10	10.60	11.70	13.20	13.80	14.20	15.00	14.90	15.50	15.50	14.60	13.80	12.40	11.20	10.40	10.90	14.30	13.90
13.80	13.00	12.60	12.00	11.30	10.70	11.50	13.70	14.80	15.90	16.30	17.50	18.40	19.60	19.60	18.30	16.50	14.40	13.00	12.40	12.60	12.50	12.20	11.90
12.20	12.50	12.00	11.40	11.20	11.00	10.80	11.30	13.10	14.80	17.10	18.20	18.00	17.90	19.30	19.20	18.00	16.50	15.20	14.70	13.90	14.10	14.00	12.80
11.90	11.10	10.50	10.00	9.50	9.30	8.90	8.80	10.80	13.60	16.30	18.60	20.90	22.00	21.60	20.10	18.30	16.90	15.30	13.80	12.70	11.70	11.10	10.30
10.00	9.80	9.30	8.60	8.40	8.60	8.60	8.60	9.60	11.30	13.40	15.20	16.60	17.50	17.90	17.50	17.00	16.10	15.60	15.10	14.60	14.40	14.20	14.10
14.00	13.80	13.60	13.30	13.30	13.10	12.90	13.00	13.10	13.60	14.30	14.80	15.50	16.30	16.30	16.10	15.70	15.20	14.70	14.20	13.60	13.60	13.40	13.20
13.00	12.90	12.60	12.40	12.20	12.00	12.00	11.90	12.20	12.60	12.80	13.00	13.10	13.10	13.20	13.10	12.90	12.60	12.30	12.20	12.10	12.10	12.00	11.90
11.80	11.80	11.70	11.70	11.60	11.50	11.50	11.50	11.70	11.80	12.10	12.40	12.40	12.30	12.40	12.30	12.40	12.20	12.00	11.90	11.80	11.80	11.70	11.70
11.60	11.50	11.40	11.40	11.30	11.30	11.20	11.20	11.30	11.60	12.20	12.50	12.90	13.40	13.30	13.30	13.10	12.80	12.50	12.30	12.10	12.00	11.90	11.70
11.50	11.30	11.20	11.10	11.00	11.10	11.00	11.70	12.20	12.70	13.10	13.50	14.00	14.40	14.90	15.20	15.00	14.50	14.10	13.80	13.80	13.90	13.90	13.70
13.30	13.30	13.40	13.20	13.40	13.30	13.30	13.20	12.90	13.10	12.80	12.50	12.60	12.80	13.30	13.80	13.70	13.40	13.30	13.10	12.80	12.40	12.00	11.70
11.40	10.50	10.40	10.90	11.40	11.50	13.80	14.30	16.00	17.10	17.50	18.20	19.20	20.10	19.80	18.40	17.40	17.00	14.50	12.70	11.00	10.20	9.30	8.70
9.90	9.90	10.20	9.30	8.20	7.60	7.50	6.80	9.50	11.40	13.00	14.00	14.70	15.30	16.20	16.30	15.10	12.90	11.40	10.20	9.40	9.20	9.20	9.00


																							
																							
																							
