																													
14.40	14.50	14.30	14.00	13.80	13.70	14.60	16.60	16.60	17.60	20.60	22.30	23.20	24.30	24.40	24.80	25.00	24.10	23.70	21.60	19.40	17.80	17.10	16.50						
16.20	16.00	15.50	15.30	15.00	15.00	16.10	17.90	19.80	21.20	22.60	23.40	24.20	24.90	24.80	25.90	26.60	26.30	25.20	23.70	21.50	20.10	19.30	18.60						
17.90	17.30	17.40	17.50	17.30	17.40	18.50	19.70	20.60	21.90	23.00	24.40	27.80	27.60	28.50	28.50	29.00	26.80	25.40	24.30	99	99	99	99						
99	99	99	99	99	99	99	99	21.40	22.20	23.20	24.50	26.40	28.60	29.80	30.70	30.70	30.00	27.80	26.40	25.00	23.70	22.90	22.30						
22.00	21.80	21.70	21.30	21.10	20.80	20.90	21.30	21.40	20.50	20.30	22.30	24.40	26.70	27.20	29.50	31.20	32.00	29.60	26.40	24.30	23.00	22.20	21.30						
19.70	19.50	19.70	20.10	20.00	20.40	20.60	21.90	22.70	23.10	23.80	25.30	26.40	26.70	27.60	29.60	29.20	28.20	27.20	26.00	25.10	24.30	22.90	21.10						
19.80	19.80	18.70	18.60	18.90	19.00	19.20	19.60	20.20	20.60	20.50	19.50	19.10	19.80	19.10	19.80	21.00	20.00	18.60	18.20	18.40	18.30	18.20	18.40						
16.20	16.40	16.00	15.90	16.30	16.50	17.70	18.70	20.10	21.70	23.40	24.40	26.00	27.40	29.10	29.40	29.50	28.20	27.10	24.70	22.40	20.90	19.80	19.20						
18.90	18.50	18.10	18.10	17.80	17.90	18.60	20.40	22.20	23.30	23.90	25.30	26.70	28.00	29.00	30.00	30.10	29.20	28.60	26.20	23.80	22.60	21.60	20.80						
20.10	20.10	20.30	20.10	19.30	19.10	20.20	22.70	24.50	25.60	26.30	28.00	27.90	28.30	28.20	27.00	23.50	20.40	19.70	19.00	18.90	18.60	18.10	18.00						
18.10	18.00	17.90	17.50	17.50	17.40	17.80	19.30	21.80	23.00	23.60	23.80	23.70	23.50	17.80	14.30	14.20	15.20	15.40	14.80	14.00	13.40	14.80	14.20						
13.90	14.40	12.90	12.50	12.50	12.40	13.50	15.00	16.80	18.40	18.70	17.80	17.90	18.00	19.50	20.60	21.40	22.20	21.60	20.80	19.80	19.00	18.30	17.90						
17.50	16.90	16.60	16.20	16.10	15.70	17.30	18.90	20.00	21.20	22.40	24.00	25.00	25.50	25.90	25.20	25.70	25.30	24.50	21.30	19.30	18.30	17.50	16.20						
15.90	14.60	14.10	14.10	13.80	13.50	14.70	16.80	18.60	20.40	22.70	23.00	23.30	23.90	23.80	23.80	24.10	24.80	24.70	21.90	20.10	18.60	17.40	16.80						
16.60	16.20	16.30	16.30	15.60	15.90	16.90	17.20	14.80	14.90	15.10	14.90	15.30	16.50	17.70	18.20	19.00	17.90	15.80	14.90	15.00	15.20	14.90	14.80						
14.50	14.00	13.60	13.30	13.10	13.10	14.60	16.80	18.40	20.00	21.10	23.20	24.30	25.10	25.60	25.70	25.80	25.40	22.40	21.10	19.80	18.70	18.20	18.60						
18.60	17.20	15.50	14.50	14.10	13.60	15.40	18.60	21.00	23.10	24.70	25.20	25.80	26.30	26.60	26.80	26.20	26.70	26.10	23.40	21.10	19.60	18.20	17.50						
16.80	16.60	16.20	16.00	15.80	16.00	17.20	18.80	20.50	22.00	23.60	24.80	27.00	26.60	26.70	26.70	26.30	26.20	25.50	23.90	22.10	20.80	19.60	18.80						
18.00	17.40	17.50	17.20	17.00	17.00	18.40	20.60	22.40	24.70	26.40	27.70	28.50	29.40	29.90	30.10	30.10	29.50	29.30	26.70	24.40	22.90	21.70	20.60						
19.70	19.20	18.90	18.90	18.60	19.20	20.10	21.40	23.10	25.80	26.90	28.10	29.70	30.70	31.00	31.00	31.00	31.00	29.70	27.90	25.80	24.50	23.60	22.80						
22.10	21.30	21.10	21.10	20.80	20.60	21.70	23.20	25.60	26.80	28.80	29.90	31.00	31.70	32.40	32.60	32.70	32.40	31.20	29.00	26.60	25.10	23.80	23.20						
22.00	21.20	20.50	19.90	19.50	19.90	21.40	23.60	26.20	28.30	30.20	31.00	31.70	32.40	32.60	33.00	32.10	31.30	30.90	29.20	27.10	25.60	24.50	23.50						
22.60	22.10	21.40	20.70	20.50	20.50	21.50	23.30	26.30	28.00	28.90	29.80	30.40	30.20	29.30	28.50	28.40	28.30	26.30	22.30	20.80	20.40	20.40	20.30						
20.30	20.20	19.80	19.40	19.10	19.30	20.10	21.00	22.20	23.70	25.40	27.50	28.20	27.90	29.40	30.00	30.20	29.80	28.40	27.00	25.30	24.50	23.70	22.80						
22.30	21.80	21.40	21.30	21.30	21.40	22.10	22.70	24.00	26.90	27.70	29.00	30.00	30.30	31.20	30.80	30.30	30.30	29.10	27.00	26.10	25.20	24.40	23.80						
23.10	22.50	22.30	23.10	23.00	22.50	22.70	22.60	22.80	23.20	24.50	24.60	25.10	25.90	26.00	25.80	22.00	21.90	22.20	22.00	21.60	21.60	21.40	21.30						
21.30	21.40	21.00	21.10	21.10	21.00	20.90	21.60	22.30	23.20	24.30	24.90	25.70	27.30	27.70	29.20	30.20	30.60	28.90	26.60	25.30	24.20	23.70	23.20						
22.90	22.50	22.10	21.60	21.30	21.30	22.00	23.70	26.00	26.90	28.60	29.50	29.50	30.50	30.60	31.20	31.80	30.30	29.20	28.10	26.20	25.10	24.20	23.50						
23.00	22.40	21.80	21.80	21.80	22.20	23.10	24.70	25.50	27.30	29.70	30.80	30.50	31.40	32.20	31.80	31.50	30.90	29.70	28.20	27.10	26.50	25.80	25.00						
24.50	23.80	23.30	23.10	23.10	23.20	23.60	23.90	22.80	22.70	21.30	21.50	24.30	25.80	28.00	29.90	31.10	29.90	28.90	27.10	24.80	23.50	22.70	22.00						



																							
																							
																							
